{
  "artifactGenerations" : [ ],
  "artifactId" : "demo4-test",
  "groupId" : "org.dxl.demo4",
  "metamodelDependencies" : [ ],
  "projectDependencies" : [ ],
  "projectId" : "PROD-34390921",
  "projectStructureVersion" : {
    "extensionVersion" : null,
    "version" : 12
  },
  "projectType" : "PRODUCTION"
}